…
Evolution 2014 2015 pour les pluridisciplinaires science

    ## # A tibble: 49 × 5
    ##    Établissement                                      R2014 R2015 delta deltap
    ##    <chr>                                              <int> <int> <int>  <dbl>
    ##  1 Université d'Orléans                                   4    50    46  12.5 
    ##  2 Université de Corse Pasquale Paoli                     7    22    15   3.14
    ##  3 La Rochelle Université                                42    88    46   2.10
    ##  4 Université Lille 2 - Droit et Santé                  141   275   134   1.95
    ##  5 Université de Bourgogne                                9    15     6   1.67
    ##  6 Université de Bretagne Occidentale                   173   241    68   1.39
    ##  7 Université de Rouen Normandie                         70    95    25   1.36
    ##  8 Université Savoie Mont Blanc                           9    12     3   1.33
    ##  9 Université Le Havre Normandie                        467   574   107   1.23
    ## 10 Université de Versailles Saint-Quentin-en-Yvelines    66    80    14   1.21
    ## # … with 39 more rows
…
